{
    "subject": "5050424c32303233796f75726561636865645261686174",
    "alias": "youreachedRahat",
    "contactData": {
      "value": ["discord: youreachedrahat#9407", 
                "Instagram: iamroughlycalledrahat"]
    },
    "url": {
      "value": ["https://rahatsayyed.netlify.app/",
                "https://www.linkedin.com/in/youreachedrahat/",
                "https://github.com/youreachedrahat"]
    },
    "bio": {
      "value": "I'm particularly interested in exploring the field of Web3.0 and its potential to revolutionize the way we interact with the internet. I'm also passionate about public speaking and training others, and I'm always seeking opportunities to share my knowledge and expertise."
    },
    "goals": {
      "value":"Become a Blockchain Security Expert."
    }
}
  